assignment_02
…
# since output should be string, check character vector
test_that("Output is character vector.", {
  expect_type(output(list_of_things), "character")
})

2.3 - Below is sample code that splits the iris dataset into three species, and saves each dataframe as a separate file. Use the appropriate testthat function to check that these files were successfully created. Bonus points if you use the appropriate purrr function to check if all the files were successfully created. (hint: file.exists(here::here(glue::glue("1", ".csv"))) returns TRUE if the file exists and FALSE if it doesnt)

iris %>%
  nest(data = -Species) %>%
  pmap( ~ write_csv(.y, path = here::here(glue::glue(.x, ".csv"))))

## [[1]]
## # A tibble: 50 x 4
##    Sepal.Length Sepal.Width Petal.Length Petal.Width
##           <dbl>       <dbl>        <dbl>       <dbl>
##  1          5.1         3.5          1.4         0.2
##  2          4.9         3            1.4         0.2
##  3          4.7         3.2          1.3         0.2
##  4          4.6         3.1          1.5         0.2
##  5          5           3.6          1.4         0.2
##  6          5.4         3.9          1.7         0.4
##  7          4.6         3.4          1.4         0.3
##  8          5           3.4          1.5         0.2
##  9          4.4         2.9          1.4         0.2
## 10          4.9         3.1          1.5         0.1
## #  with 40 more rows
## 
## [[2]]
## # A tibble: 50 x 4
##    Sepal.Length Sepal.Width Petal.Length Petal.Width
##           <dbl>       <dbl>        <dbl>       <dbl>
##  1          7           3.2          4.7         1.4
##  2          6.4         3.2          4.5         1.5
##  3          6.9         3.1          4.9         1.5
##  4          5.5         2.3          4           1.3
##  5          6.5         2.8          4.6         1.5
##  6          5.7         2.8          4.5         1.3
##  7          6.3         3.3          4.7         1.6
##  8          4.9         2.4          3.3         1  
##  9          6.6         2.9          4.6         1.3
## 10          5.2         2.7          3.9         1.4
## #  with 40 more rows
## 
## [[3]]
## # A tibble: 50 x 4
##    Sepal.Length Sepal.Width Petal.Length Petal.Width
##           <dbl>       <dbl>        <dbl>       <dbl>
##  1          6.3         3.3          6           2.5
##  2          5.8         2.7          5.1         1.9
##  3          7.1         3            5.9         2.1
##  4          6.3         2.9          5.6         1.8
##  5          6.5         3            5.8         2.2
##  6          7.6         3            6.6         2.1
##  7          4.9         2.5          4.5         1.7
##  8          7.3         2.9          6.3         1.8
##  9          6.7         2.5          5.8         1.8
## 10          7.2         3.6          6.1         2.5
## #  with 40 more rows
…
